<?xml version="1.0" encoding="utf-8"?>
<!-- Generator: Adobe Illustrator 21.1.0, SVG Export Plug-In . SVG Version: 6.00 Build 0)  -->
<svg version="1.1" id="Capa_1" xmlns="http://www.w3.org/2000/svg" xmlns:xlink="http://www.w3.org/1999/xlink" x="0px" y="0px"
	 viewBox="0 0 300 300" style="enable-background:new 0 0 300 300;" xml:space="preserve">
<style type="text/css">
	.st0{fill:#FFFFFF;}
	.st1{fill:#C8CCDC;}
	.st2{fill:#FDFDFD;}
	.st3{fill:#8C90A3;}
	.st4{fill:#70C770;}
	.st5{fill:#009245;}
	.st6{fill:#696E83;}
</style>
<g>
	<circle class="st0" cx="149.5" cy="151.5" r="144.5"/>
	<g>
		<g>
			<path class="st1" d="M296,161.1c-0.5,1.1-0.3,2.3-0.4,3.5c-0.9,9.9-2.9,19.6-5.8,29.1c-2.1,6.7-4.6,13.2-7.7,19.6
				c-3.4,7-7.2,13.7-11.6,20c-3.5,5.1-7.3,9.9-11.5,14.5c-3.1,3.5-6.4,6.8-9.8,9.9c-4.7,4.4-9.7,8.4-15,12
				c-6.8,4.7-13.9,8.9-21.4,12.4c-10.6,4.9-21.5,8.7-33,11c-6,1.2-12,2-18.1,2.5c-5.5,0.5-10.9,0.6-16.4,0.4
				c-6.1-0.2-12.2-0.9-18.2-1.9c-8-1.3-15.9-3.2-23.6-5.9c-10.3-3.5-20-8.1-29.3-13.8c-6.7-4.1-12.9-8.7-18.9-13.8
				c-5-4.3-9.7-9-14.1-14c-4.5-5.1-8.6-10.5-12.4-16.1c-3.1-4.7-6-9.5-8.5-14.6c-4.7-9.4-8.3-19.1-10.9-29.3
				c-1.6-6.4-2.8-12.9-3.6-19.4c-1-8.1-1-16.3-0.7-24.5c0.2-5.9,1.1-11.7,2.1-17.5c1.9-10.9,5.1-21.4,9.4-31.5
				c3.1-7.5,7-14.7,11.4-21.5c4.3-6.7,9.1-12.9,14.5-18.8c8.8-9.7,18.7-18.2,29.8-25.3c14.4-9.2,30-15.6,46.7-19.4
				c5.4-1.2,10.8-2,16.2-2.6c7.7-0.9,15.3-0.8,23-0.6c6.3,0.2,12.6,1,18.8,2.2c7.2,1.3,14.2,3.1,21,5.5c9,3.1,17.7,7.1,25.9,11.9
				c6.5,3.8,12.7,8.1,18.6,12.9c4.9,4,9.5,8.2,13.8,12.8c6.2,6.6,11.8,13.7,16.8,21.4c5.7,9,10.5,18.4,14.1,28.4
				c2.9,7.8,5.1,15.9,6.6,24.1c0.7,3.9,1.3,7.7,1.6,11.7c0.1,1.3-0.1,2.7,0.4,4C296,147.2,296,154.2,296,161.1z M150.5,286.4
				c74.9,0.3,136.1-61,136.1-135.1c0-37.4-13.2-69.7-39.5-96.2C221,28.8,189,15.2,151.9,14.9c-76.3-0.7-137.3,61-137.3,135.7
				C14.6,225.6,75.8,286.5,150.5,286.4z"/>
			<path class="st2" d="M150.5,286.4c-74.7,0.1-136-60.8-135.9-135.8c0-74.7,61-136.4,137.3-135.7c37.1,0.4,69.1,13.9,95.3,40.3
				c26.3,26.5,39.5,58.7,39.5,96.2C286.6,225.4,225.4,286.7,150.5,286.4z M275.8,150.5c0.3-68.6-56-124.4-124-124.9
				c-70-0.5-126.3,56.1-126.3,124.8c0,69.2,55.8,125,124.8,125.3C219.9,275.9,276.2,219.2,275.8,150.5z"/>
			<path class="st1" d="M275.8,150.5c0.4,68.6-55.9,125.4-125.6,125.1c-69-0.3-124.8-56.1-124.8-125.3
				c0-68.7,56.3-125.3,126.3-124.8C219.8,26.1,276.1,82,275.8,150.5z"/>
		</g>
		<g>
			<g>
				<path class="st0" d="M248.5,182c5.9-15.1,7.4-29.1,6-41.9c-19.5,28.4-49.4,29-49.4,29c25.6-8.7,39.8-27.6,47-41.4
					c-3.5-12.8-9.8-24.1-17.2-34c-6.7,41.6-32.4,57.7-32.4,57.7c19.6-23.2,22.8-50.2,21.4-70.6c-19-19.7-39.6-30.5-39.6-30.5
					c45.8,76.3-26.9,112.7-33.5,115.8c-6.6-3.1-79.3-39.5-33.5-115.8c0,0-20.6,10.8-39.6,30.5c-1.4,20.3,1.8,47.4,21.4,70.6
					c0,0-25.7-16.1-32.4-57.7c-7.4,9.9-13.7,21.2-17.2,34c7.3,13.8,21.4,32.7,47,41.4c0,0-29.9-0.6-49.4-29
					c-1.5,12.8,0.1,26.8,6,41.9c13.3,3.9,30.3,5.5,48.7-0.5c0,0-18.3,13.2-44.7,9.5c4.7,9.5,11.2,19.3,19.7,29.5
					c11.7-6.5,24.1-16.8,32.5-33c0,0-4,23.4-27.2,39.1c5.2,5.8,11.1,11.6,17.6,17.6c0,0,20.9-53.7,39.6-37.1c0,0-11,4.8-16.5,22.3
					c0,0,19.4,3.2,28,16.7v0c0,0,0,0,0,0c0,0,0,0,0,0v0c8.6-13.5,28-16.7,28-16.7c-5.5-17.6-16.5-22.3-16.5-22.3
					c18.7-16.6,39.6,37.1,39.6,37.1c6.6-6,12.4-11.8,17.6-17.6c-23.2-15.7-27.2-39.1-27.2-39.1c8.5,16.1,20.8,26.4,32.5,33
					c8.5-10.2,15-20.1,19.7-29.5c-26.4,3.7-44.7-9.5-44.7-9.5C218.3,187.6,235.2,185.9,248.5,182z"/>
				<path class="st3" d="M248.5,182c5.9-15.1,7.4-29.1,6-41.9c-19.5,28.4-49.4,29-49.4,29c25.6-8.7,39.8-27.6,47-41.4
					c-3.5-12.8-9.8-24.1-17.2-34c-6.7,41.6-32.4,57.7-32.4,57.7c19.6-23.2,22.8-50.2,21.4-70.6c-19-19.7-39.6-30.5-39.6-30.5
					c45.7,76.2-26.7,112.5-33.5,115.8v80.2c8.6-13.5,28-16.7,28-16.7c-5.5-17.6-16.5-22.3-16.5-22.3c18.7-16.6,39.6,37.1,39.6,37.1
					c6.6-6,12.4-11.8,17.6-17.6c-23.2-15.7-27.2-39.1-27.2-39.1c8.5,16.1,20.8,26.4,32.5,33c8.5-10.2,15-20.1,19.7-29.5
					c-26.4,3.7-44.7-9.5-44.7-9.5C218.3,187.6,235.2,185.9,248.5,182z"/>
			</g>
			<g>
				<g>
					<path class="st4" d="M120.6,104.7c-0.9,2.6,0,8.4,2.2,11.1c0,4.7,0,8.9,2.3,13c1.9,3.5,3.5,5.1,6.3,7.2
						c2.8,2.1,4.3,2.5,7.3,3.9c2.4,1.1,6.8,3,11.1,3c-3.7,0.5-11.5-1.7-14.9-3.2c-8.5-3.6-14.7-9-16.8-18.1
						C116.9,116.5,117.3,109.7,120.6,104.7z"/>
				</g>
				<g>
					<path class="st4" d="M162.7,77.5c3.6,5,5.5,7.9,8.1,12.6c6.8,11.7,9.4,22.1,4.7,35.3c-2.8,7.7-13.1,16.3-22,17.5
						c3.9-0.2,12.1-2.3,16.9-5.4c10.3-6.6,14.7-13.7,16.5-24.6c1.2-7.4-0.1-14.9-4.4-20.5c1.2,3.1-0.9,6.8-1.4,7.9
						c0.2-2.3-0.6-7.3-2.5-10.5c-3.9-6.8-8.1-11.3-13.9-17.4c-4.3-4.5-5.5-12.4-3-17.1c-4.8,4.3-6,10.8-5.3,13.7
						C156.4,68.9,161.2,75.3,162.7,77.5z"/>
				</g>
				<g>
					<path class="st5" d="M149.8,142.9c-6,0.1-14.8-3.8-18.3-6.3c-10.7-7.9-10.2-19.3-7.4-30.9c1.4-5.6,4.7-12.5,5.1-17.3
						c0.4-4-1-7.3-2.1-10.1c1.4,2.3,3,4.5,5.3,6.1c4.7,3.5,9.2,0.9,10.2-4.1c2.1-9.6-3.8-19.6,0.7-31.6c2.5-6.6,6.1-10.7,13.1-14.3
						c-14.7,14.2-3.8,28.7,5,40.9c10.5,14.5,22.1,30.6,14.9,49.2c-3.7,9.1-12,16.4-22.9,18.4L149.8,142.9z"/>
				</g>
				<g>
					<path class="st4" d="M151.6,142.8c-1.4,0-2.9,0-5.4,0c-11.9-4.5-17.8-19.4-11.4-29.9c2.7-4.5,5.9-7.3,10.4-8.7
						c-2.5,2.3-2.5,7.6-0.6,9.8c4.6,5.4,10.9-0.3,8.1-6.9c-6.3-14.8-17-17.6-13.5-31.9c1.4-5.6,6.3-10.9,11.7-14.5
						c-2.6,4.5-2.6,8.3-2.6,11.2c0.3,7.6,5.8,12.7,10.6,18.1c9.2,10.5,18.4,22.5,11.4,37.7c-3.9,8.6-9.7,12.9-18.3,14.9L151.6,142.8
						z"/>
				</g>
			</g>
		</g>
		<g>
			<g>
				<path class="st6" d="M168.9,228c1.1,0,1.5-1.4,0.2-1.4C168,226.6,167.6,228,168.9,228L168.9,228z"/>
			</g>
		</g>
	</g>
</g>
</svg>
